{
    "name": "python3-youtube_dl",
    "buildsystem": "simple",
    "build-commands": [
        "pip3 install --verbose --exists-action=i --no-index --find-links=\"file://${PWD}\" --prefix=${FLATPAK_DEST} \"youtube_dl\" --no-build-isolation"
    ],
    "sources": [
        {
            "type": "file",
            "url": "https://files.pythonhosted.org/packages/94/a0/b8325b524700daae1c04a6156473ab7091d44071353f1d7c9e66b9c7f019/youtube_dl-2021.4.26.tar.gz",
            "sha256": "6f311ffaf8b88cdcf27a2301a2272455e213bdb780aa447246933a3da4532879"
        }
    ]
}